INDEX VERSION 1.131+D:\Users\patric.wilmart\Documents\Spring\.metadata\.plugins\org.eclipse.jdt.core
2848004124.index
3421819425.index
4243259660.index
96734081.index
795290314.index
3032694404.index
121147443.index
4196881932.index
3104340509.index
1884575632.index
2934037791.index
244609409.index
2111512668.index
4021061002.index
1644868008.index
1968008757.index
1133445166.index
2761305277.index
1490339830.index
2609378058.index
2338510053.index
1754734438.index
1796468193.index
3815664136.index
2624726496.index
2987924844.index
4254781101.index
627428006.index
658275479.index
1718277146.index
4165744234.index
1303184529.index
170921968.index
2904297917.index
366204796.index
2828169528.index
168730169.index
627299508.index
1645795514.index
2950759422.index
1877683061.index
2961514486.index
1826555855.index
3789153271.index
870188990.index
2820363601.index
1232457006.index
2605561000.index
1240596490.index
848757937.index
1296254563.index
1799144891.index
338011152.index
817781774.index
1713172528.index
1529932478.index
2669783963.index
331461719.index
1207275022.index
1228019338.index
1390030119.index
1197922778.index
1928214501.index
715107097.index
2388342101.index
2091472264.index
1484827932.index
3825026981.index
2686296187.index
2202167482.index
177638979.index
2256821688.index
3051675504.index
3440188351.index
2472394030.index
1983405849.index
3579902010.index
2664883026.index
2027872793.index
855375561.index
3745837425.index
2098441931.index
1060562081.index
4044164477.index
1944718906.index
735721245.index
2476749742.index
4039019491.index
1295920834.index
3033406381.index
1296103107.index
853061084.index
2097710111.index
2689729560.index
3911183158.index
1376359262.index
124558605.index
2205290751.index
1815176720.index
